%!PS-Adobe-3.0 EPSF-3.0
%%Creator: MATLAB, The Mathworks, Inc. Version 7.10.0.499 (R2010a). Operating System: Microsoft Windows 7.
%%Title: C:\Users\Zack\Dropbox\Manuscripts\BPJ_2014_SA\Latex-JACS\Figures\Rate map.eps
%%CreationDate: 11/04/2014  11:18:56
%%DocumentNeededFonts: Helvetica
%%DocumentProcessColors: Cyan Magenta Yellow Black
%%LanguageLevel: 2
%%Pages: 1
%%BoundingBox:   141   274   468   516
%%EndComments

%%BeginProlog
% MathWorks dictionary
/MathWorks 160 dict begin
% definition operators
/bdef {bind def} bind def
/ldef {load def} bind def
/xdef {exch def} bdef
/xstore {exch store} bdef
% operator abbreviations
/c  /clip ldef
/cc /concat ldef
/cp /closepath ldef
/gr /grestore ldef
/gs /gsave ldef
/mt /moveto ldef
/np /newpath ldef
/cm /currentmatrix ldef
/sm /setmatrix ldef
/rm /rmoveto ldef
/rl /rlineto ldef
/s {show newpath} bdef
/sc {setcmykcolor} bdef
/sr /setrgbcolor ldef
/sg /setgray ldef
/w /setlinewidth ldef
/j /setlinejoin ldef
/cap /setlinecap ldef
/rc {rectclip} bdef
/rf {rectfill} bdef
% page state control
/pgsv () def
/bpage {/pgsv save def} bdef
/epage {pgsv restore} bdef
/bplot /gsave ldef
/eplot {stroke grestore} bdef
% orientation switch
/portraitMode 0 def /landscapeMode 1 def /rotateMode 2 def
% coordinate system mappings
/dpi2point 0 def
% font control
/FontSize 0 def
/FMS {/FontSize xstore findfont [FontSize 0 0 FontSize neg 0 0]
  makefont setfont} bdef
/ISOLatin1Encoding where {pop /WindowsLatin1Encoding 256 array bdef
ISOLatin1Encoding WindowsLatin1Encoding copy pop
/.notdef/.notdef/quotesinglbase/florin/quotedblbase/ellipsis/dagger
/daggerdbl/circumflex/perthousand/Scaron/guilsinglleft/OE/.notdef/.notdef
/.notdef/.notdef/quoteleft/quoteright/quotedblleft/quotedblright/bullet
/endash/emdash/tilde/trademark/scaron/guilsinglright/oe/.notdef/.notdef
/Ydieresis WindowsLatin1Encoding 128 32 getinterval astore pop}
{/WindowsLatin1Encoding StandardEncoding bdef} ifelse
/reencode {exch dup where {pop load} {pop StandardEncoding} ifelse
  exch dup 3 1 roll findfont dup length dict begin
  { 1 index /FID ne {def}{pop pop} ifelse } forall
  /Encoding exch def currentdict end definefont pop} bdef
/isroman {findfont /CharStrings get /Agrave known} bdef
/FMSR {3 1 roll 1 index dup isroman {reencode} {pop pop} ifelse
  exch FMS} bdef
/csm {1 dpi2point div -1 dpi2point div scale neg translate
 dup landscapeMode eq {pop -90 rotate}
  {rotateMode eq {90 rotate} if} ifelse} bdef
% line types: solid, dotted, dashed, dotdash
/SO { [] 0 setdash } bdef
/DO { [.5 dpi2point mul 4 dpi2point mul] 0 setdash } bdef
/DA { [6 dpi2point mul] 0 setdash } bdef
/DD { [.5 dpi2point mul 4 dpi2point mul 6 dpi2point mul 4
  dpi2point mul] 0 setdash } bdef
% macros for lines and objects
/L {lineto stroke} bdef
/MP {3 1 roll moveto 1 sub {rlineto} repeat} bdef
/AP {{rlineto} repeat} bdef
/PDlw -1 def
/W {/PDlw currentlinewidth def setlinewidth} def
/PP {closepath eofill} bdef
/DP {closepath stroke} bdef
/MR {4 -2 roll moveto dup  0 exch rlineto exch 0 rlineto
  neg 0 exch rlineto closepath} bdef
/FR {MR stroke} bdef
/PR {MR fill} bdef
/L1i {{currentfile picstr readhexstring pop} image} bdef
/tMatrix matrix def
/MakeOval {newpath tMatrix currentmatrix pop translate scale
0 0 1 0 360 arc tMatrix setmatrix} bdef
/FO {MakeOval stroke} bdef
/PO {MakeOval fill} bdef
/PD {currentlinewidth 2 div 0 360 arc fill
   PDlw -1 eq not {PDlw w /PDlw -1 def} if} def
/FA {newpath tMatrix currentmatrix pop translate scale
  0 0 1 5 -2 roll arc tMatrix setmatrix stroke} bdef
/PA {newpath tMatrix currentmatrix pop	translate 0 0 moveto scale
  0 0 1 5 -2 roll arc closepath tMatrix setmatrix fill} bdef
/FAn {newpath tMatrix currentmatrix pop translate scale
  0 0 1 5 -2 roll arcn tMatrix setmatrix stroke} bdef
/PAn {newpath tMatrix currentmatrix pop translate 0 0 moveto scale
  0 0 1 5 -2 roll arcn closepath tMatrix setmatrix fill} bdef
/vradius 0 def /hradius 0 def /lry 0 def
/lrx 0 def /uly 0 def /ulx 0 def /rad 0 def
/MRR {/vradius xdef /hradius xdef /lry xdef /lrx xdef /uly xdef
  /ulx xdef newpath tMatrix currentmatrix pop ulx hradius add uly
  vradius add translate hradius vradius scale 0 0 1 180 270 arc 
  tMatrix setmatrix lrx hradius sub uly vradius add translate
  hradius vradius scale 0 0 1 270 360 arc tMatrix setmatrix
  lrx hradius sub lry vradius sub translate hradius vradius scale
  0 0 1 0 90 arc tMatrix setmatrix ulx hradius add lry vradius sub
  translate hradius vradius scale 0 0 1 90 180 arc tMatrix setmatrix
  closepath} bdef
/FRR {MRR stroke } bdef
/PRR {MRR fill } bdef
/MlrRR {/lry xdef /lrx xdef /uly xdef /ulx xdef /rad lry uly sub 2 div def
  newpath tMatrix currentmatrix pop ulx rad add uly rad add translate
  rad rad scale 0 0 1 90 270 arc tMatrix setmatrix lrx rad sub lry rad
  sub translate rad rad scale 0 0 1 270 90 arc tMatrix setmatrix
  closepath} bdef
/FlrRR {MlrRR stroke } bdef
/PlrRR {MlrRR fill } bdef
/MtbRR {/lry xdef /lrx xdef /uly xdef /ulx xdef /rad lrx ulx sub 2 div def
  newpath tMatrix currentmatrix pop ulx rad add uly rad add translate
  rad rad scale 0 0 1 180 360 arc tMatrix setmatrix lrx rad sub lry rad
  sub translate rad rad scale 0 0 1 0 180 arc tMatrix setmatrix
  closepath} bdef
/FtbRR {MtbRR stroke } bdef
/PtbRR {MtbRR fill } bdef
/stri 6 array def /dtri 6 array def
/smat 6 array def /dmat 6 array def
/tmat1 6 array def /tmat2 6 array def /dif 3 array def
/asub {/ind2 exch def /ind1 exch def dup dup
  ind1 get exch ind2 get sub exch } bdef
/tri_to_matrix {
  2 0 asub 3 1 asub 4 0 asub 5 1 asub
  dup 0 get exch 1 get 7 -1 roll astore } bdef
/compute_transform {
  dmat dtri tri_to_matrix tmat1 invertmatrix 
  smat stri tri_to_matrix tmat2 concatmatrix } bdef
/ds {stri astore pop} bdef
/dt {dtri astore pop} bdef
/db {2 copy /cols xdef /rows xdef mul dup 3 mul string
  currentfile 
  3 index 0 eq {/ASCIIHexDecode filter}
  {/ASCII85Decode filter 3 index 2 eq {/RunLengthDecode filter} if }
  ifelse exch readstring pop
  dup 0 3 index getinterval /rbmap xdef
  dup 2 index dup getinterval /gbmap xdef
  1 index dup 2 mul exch getinterval /bbmap xdef pop pop}bdef
/it {gs np dtri aload pop moveto lineto lineto cp c
  cols rows 8 compute_transform 
  rbmap gbmap bbmap true 3 colorimage gr}bdef
/il {newpath moveto lineto stroke}bdef
currentdict end def
%%EndProlog

%%BeginSetup
MathWorks begin

0 cap

end
%%EndSetup

%%Page: 1 1
%%BeginPageSetup
%%PageBoundingBox:   141   274   468   516
MathWorks begin
bpage
%%EndPageSetup

%%BeginObject: obj1
bplot

/dpi2point 12 def
portraitMode 1692 6192 csm

    0     0  3934  2898 rc
87 dict begin %Colortable dictionary
/c0 { 0.000000 0.000000 0.000000 sr} bdef
/c1 { 1.000000 1.000000 1.000000 sr} bdef
/c2 { 0.900000 0.000000 0.000000 sr} bdef
/c3 { 0.000000 0.820000 0.000000 sr} bdef
/c4 { 0.000000 0.000000 0.800000 sr} bdef
/c5 { 0.910000 0.820000 0.320000 sr} bdef
/c6 { 1.000000 0.260000 0.820000 sr} bdef
/c7 { 0.000000 0.820000 0.820000 sr} bdef
c0
1 j
1 sg
   0    0 3935 2899 rf
6 w
0 2362 3049 0 0 -2362 511 2579 4 MP
PP
-3049 0 0 2362 3049 0 0 -2362 511 2579 5 MP stroke
4 w
DO
SO
6 w
0 sg
 511  217 mt 3560  217 L
 511 2579 mt 3560 2579 L
3560 2579 mt 3560  217 L
 511 2579 mt  511  217 L
 511 2579 mt 3560 2579 L
 511 2579 mt  511  217 L
 511 2579 mt  511 2548 L
 511  217 mt  511  247 L
%%IncludeResource: font Helvetica
/Helvetica /WindowsLatin1Encoding 120 FMSR

 478 2724 mt 
(0) s
1120 2579 mt 1120 2548 L
1120  217 mt 1120  247 L
1020 2724 mt 
(100) s
1730 2579 mt 1730 2548 L
1730  217 mt 1730  247 L
1630 2724 mt 
(200) s
2340 2579 mt 2340 2548 L
2340  217 mt 2340  247 L
2240 2724 mt 
(300) s
2950 2579 mt 2950 2548 L
2950  217 mt 2950  247 L
2850 2724 mt 
(400) s
3560 2579 mt 3560 2548 L
3560  217 mt 3560  247 L
3460 2724 mt 
(500) s
 511 2579 mt  526 2579 L
3560 2579 mt 3544 2579 L
 511 2579 mt  541 2579 L
3560 2579 mt 3529 2579 L
 252 2623 mt 
(10) s
%%IncludeResource: font Helvetica
/Helvetica /WindowsLatin1Encoding 80 FMSR

 385 2549 mt 
(-2) s
 511 2436 mt  526 2436 L
3560 2436 mt 3544 2436 L
 511 2353 mt  526 2353 L
3560 2353 mt 3544 2353 L
 511 2294 mt  526 2294 L
3560 2294 mt 3544 2294 L
 511 2248 mt  526 2248 L
3560 2248 mt 3544 2248 L
 511 2211 mt  526 2211 L
3560 2211 mt 3544 2211 L
 511 2179 mt  526 2179 L
3560 2179 mt 3544 2179 L
 511 2152 mt  526 2152 L
3560 2152 mt 3544 2152 L
 511 2128 mt  526 2128 L
3560 2128 mt 3544 2128 L
 511 2106 mt  526 2106 L
3560 2106 mt 3544 2106 L
 511 2106 mt  541 2106 L
3560 2106 mt 3529 2106 L
%%IncludeResource: font Helvetica
/Helvetica /WindowsLatin1Encoding 120 FMSR

 252 2150 mt 
(10) s
%%IncludeResource: font Helvetica
/Helvetica /WindowsLatin1Encoding 80 FMSR

 385 2076 mt 
(-1) s
 511 1964 mt  526 1964 L
3560 1964 mt 3544 1964 L
 511 1881 mt  526 1881 L
3560 1881 mt 3544 1881 L
 511 1822 mt  526 1822 L
3560 1822 mt 3544 1822 L
 511 1776 mt  526 1776 L
3560 1776 mt 3544 1776 L
 511 1739 mt  526 1739 L
3560 1739 mt 3544 1739 L
 511 1707 mt  526 1707 L
3560 1707 mt 3544 1707 L
 511 1679 mt  526 1679 L
3560 1679 mt 3544 1679 L
 511 1655 mt  526 1655 L
3560 1655 mt 3544 1655 L
 511 1634 mt  526 1634 L
3560 1634 mt 3544 1634 L
 511 1634 mt  541 1634 L
3560 1634 mt 3529 1634 L
%%IncludeResource: font Helvetica
/Helvetica /WindowsLatin1Encoding 120 FMSR

 252 1678 mt 
(10) s
%%IncludeResource: font Helvetica
/Helvetica /WindowsLatin1Encoding 80 FMSR

 385 1604 mt 
(0) s
 511 1491 mt  526 1491 L
3560 1491 mt 3544 1491 L
 511 1408 mt  526 1408 L
3560 1408 mt 3544 1408 L
 511 1349 mt  526 1349 L
3560 1349 mt 3544 1349 L
 511 1304 mt  526 1304 L
3560 1304 mt 3544 1304 L
 511 1266 mt  526 1266 L
3560 1266 mt 3544 1266 L
 511 1234 mt  526 1234 L
3560 1234 mt 3544 1234 L
 511 1207 mt  526 1207 L
3560 1207 mt 3544 1207 L
 511 1183 mt  526 1183 L
3560 1183 mt 3544 1183 L
 511 1161 mt  526 1161 L
3560 1161 mt 3544 1161 L
 511 1161 mt  541 1161 L
3560 1161 mt 3529 1161 L
%%IncludeResource: font Helvetica
/Helvetica /WindowsLatin1Encoding 120 FMSR

 252 1205 mt 
(10) s
%%IncludeResource: font Helvetica
/Helvetica /WindowsLatin1Encoding 80 FMSR

 385 1131 mt 
(1) s
 511 1019 mt  526 1019 L
3560 1019 mt 3544 1019 L
 511  936 mt  526  936 L
3560  936 mt 3544  936 L
 511  877 mt  526  877 L
3560  877 mt 3544  877 L
 511  831 mt  526  831 L
3560  831 mt 3544  831 L
 511  794 mt  526  794 L
3560  794 mt 3544  794 L
 511  762 mt  526  762 L
3560  762 mt 3544  762 L
 511  735 mt  526  735 L
3560  735 mt 3544  735 L
 511  711 mt  526  711 L
3560  711 mt 3544  711 L
 511  689 mt  526  689 L
3560  689 mt 3544  689 L
 511  689 mt  541  689 L
3560  689 mt 3529  689 L
%%IncludeResource: font Helvetica
/Helvetica /WindowsLatin1Encoding 120 FMSR

 252  733 mt 
(10) s
%%IncludeResource: font Helvetica
/Helvetica /WindowsLatin1Encoding 80 FMSR

 385  659 mt 
(2) s
 511  547 mt  526  547 L
3560  547 mt 3544  547 L
 511  464 mt  526  464 L
3560  464 mt 3544  464 L
 511  404 mt  526  404 L
3560  404 mt 3544  404 L
 511  359 mt  526  359 L
3560  359 mt 3544  359 L
 511  321 mt  526  321 L
3560  321 mt 3544  321 L
 511  290 mt  526  290 L
3560  290 mt 3544  290 L
 511  262 mt  526  262 L
3560  262 mt 3544  262 L
 511  238 mt  526  238 L
3560  238 mt 3544  238 L
 511  217 mt  526  217 L
3560  217 mt 3544  217 L
 511  217 mt  541  217 L
3560  217 mt 3529  217 L
%%IncludeResource: font Helvetica
/Helvetica /WindowsLatin1Encoding 120 FMSR

 252  261 mt 
(10) s
%%IncludeResource: font Helvetica
/Helvetica /WindowsLatin1Encoding 80 FMSR

 385  187 mt 
(3) s
 511  217 mt 3560  217 L
 511 2579 mt 3560 2579 L
3560 2579 mt 3560  217 L
 511 2579 mt  511  217 L
%%IncludeResource: font Helvetica
/Helvetica /WindowsLatin1Encoding 120 FMSR

 494 2622 mt 
( ) s
3544  259 mt 
( ) s
gs 511 217 3050 2363 rc
gs 738 395 1109 1074 rc
/c8 { 1.000000 0.000000 0.000000 sr} bdef
c8
  36   36  811 1395 FO
  36   36  931 1040 FO
  36   36 1051  872 FO
  36   36 1172  823 FO
  36   36 1292  699 FO
  36   36 1412  687 FO
  36   36 1532  770 FO
  36   36 1653  468 FO
  36   36 1773  594 FO
gr

c8
0 279 811 1300 2 MP stroke
20 0 801 1300 2 MP stroke
20 0 801 1579 2 MP stroke
0 148 931 979 2 MP stroke
19 0 922 979 2 MP stroke
19 0 922 1127 2 MP stroke
0 132 1051 817 2 MP stroke
19 0 1042 817 2 MP stroke
19 0 1042 949 2 MP stroke
0 160 1172 758 2 MP stroke
19 0 1162 758 2 MP stroke
19 0 1162 918 2 MP stroke
0 185 1292 627 2 MP stroke
20 0 1282 627 2 MP stroke
20 0 1282 812 2 MP stroke
0 233 1412 602 2 MP stroke
20 0 1402 602 2 MP stroke
20 0 1402 835 2 MP stroke
0 481 1532 647 2 MP stroke
19 0 1523 647 2 MP stroke
19 0 1523 1128 2 MP stroke
0 630 1653 335 2 MP stroke
19 0 1643 335 2 MP stroke
19 0 1643 965 2 MP stroke
1773 420 PD
19 0 1763 420 2 MP stroke
gs 738 395 1109 1074 rc
  36   36  811 1395 FO
  36   36  931 1040 FO
  36   36 1051  872 FO
  36   36 1172  823 FO
  36   36 1292  699 FO
  36   36 1412  687 FO
  36   36 1532  770 FO
  36   36 1653  468 FO
  36   36 1773  594 FO
gr

13 5 13 4 13 3 12 3 13 3 13 1 13 2 12 0 
13 1 13 -1 13 0 12 -1 13 -2 13 -1 13 -3 12 -2 
13 -3 13 -4 13 -3 12 -5 13 -4 13 -5 13 -5 12 -5 
13 -6 13 -6 13 -7 12 -7 13 -7 13 -7 13 -8 12 -8 
13 -8 13 -8 13 -9 12 -10 13 -9 13 -10 13 -10 12 -10 
13 -11 13 -11 13 -11 12 -11 13 -12 13 -12 13 -12 12 -13 
13 -12 13 -14 13 -13 12 -13 13 -14 13 -14 13 -15 12 -15 
13 -14 13 -16 13 -15 12 -16 13 -16 13 -16 13 -16 12 -17 
13 -17 13 -17 13 -18 12 -18 13 -18 13 -18 13 -18 12 -19 
13 -19 13 -19 13 -20 12 -20 13 -20 13 -20 13 -20 12 -21 
13 -21 13 -21 13 -22 12 -22 13 -22 13 -22 13 -22 12 -23 
13 -23 13 -23 13 -24 12 -23 13 -24 13 -24 13 -25 12 -24 
13 -25 13 -25 12 -26 511 1823 100 MP stroke
gs 635 487 1464 1287 rc
/c9 { 0.000000 1.000000 0.000000 sr} bdef
c9
  36   36  708 1700 FO
  36   36  840 1369 FO
  36   36  972 1208 FO
  36   36 1103 1173 FO
  36   36 1235 1026 FO
  36   36 1367  846 FO
  36   36 1498  717 FO
  36   36 1630  770 FO
  36   36 1762  629 FO
  36   36 1894  624 FO
  36   36 2025  560 FO
gr

c9
0 369 708 1589 2 MP stroke
26 0 695 1589 2 MP stroke
26 0 695 1958 2 MP stroke
0 204 840 1291 2 MP stroke
26 0 827 1291 2 MP stroke
26 0 827 1495 2 MP stroke
0 172 972 1140 2 MP stroke
27 0 958 1140 2 MP stroke
27 0 958 1312 2 MP stroke
0 187 1103 1100 2 MP stroke
26 0 1090 1100 2 MP stroke
26 0 1090 1287 2 MP stroke
0 154 1235 963 2 MP stroke
26 0 1222 963 2 MP stroke
26 0 1222 1117 2 MP stroke
0 122 1367 794 2 MP stroke
26 0 1354 794 2 MP stroke
26 0 1354 916 2 MP stroke
0 133 1498 661 2 MP stroke
27 0 1485 661 2 MP stroke
27 0 1485 794 2 MP stroke
0 200 1630 693 2 MP stroke
26 0 1617 693 2 MP stroke
26 0 1617 893 2 MP stroke
0 229 1762 545 2 MP stroke
26 0 1749 545 2 MP stroke
26 0 1749 774 2 MP stroke
0 331 1894 519 2 MP stroke
26 0 1881 519 2 MP stroke
26 0 1881 850 2 MP stroke
0 480 2025 436 2 MP stroke
27 0 2012 436 2 MP stroke
27 0 2012 916 2 MP stroke
gs 635 487 1464 1287 rc
  36   36  708 1700 FO
  36   36  840 1369 FO
  36   36  972 1208 FO
  36   36 1103 1173 FO
  36   36 1235 1026 FO
  36   36 1367  846 FO
  36   36 1498  717 FO
  36   36 1630  770 FO
  36   36 1762  629 FO
  36   36 1894  624 FO
  36   36 2025  560 FO
gr

15 0 15 0 15 -1 16 -1 15 -1 15 -2 16 -2 15 -3 
15 -3 16 -3 15 -3 15 -4 16 -4 15 -5 15 -5 15 -5 
16 -5 15 -6 15 -6 16 -6 15 -7 15 -7 16 -7 15 -7 
15 -8 15 -8 16 -8 15 -9 15 -8 16 -9 15 -10 15 -9 
16 -10 15 -10 15 -11 15 -10 16 -11 15 -11 15 -11 16 -12 
15 -12 15 -12 16 -12 15 -13 15 -13 15 -13 16 -13 15 -14 
15 -13 16 -14 15 -15 15 -14 16 -15 15 -15 15 -15 16 -15 
15 -16 15 -16 15 -16 16 -17 15 -16 15 -17 16 -17 15 -17 
15 -18 16 -18 15 -18 15 -18 15 -18 16 -19 15 -19 15 -19 
16 -19 15 -20 15 -20 16 -20 15 -20 15 -20 15 -21 16 -21 
15 -21 15 -22 16 -21 15 -22 15 -22 16 -22 15 -23 15 -22 
15 -23 16 -23 15 -24 15 -23 16 -24 15 -24 15 -24 16 -25 
15 -25 15 -25 15 -25 511 1934 100 MP stroke
gs 634 460 1846 1533 rc
/c10 { 0.000000 0.000000 1.000000 sr} bdef
c10
  36   36  707 1830 FO
  36   36  837 1919 FO
  36   36  968 1471 FO
  36   36 1099 1274 FO
  36   36 1230 1161 FO
  36   36 1360 1021 FO
  36   36 1491  932 FO
  36   36 1622  919 FO
  36   36 1752  756 FO
  36   36 1883  759 FO
  36   36 2014  722 FO
  36   36 2145  693 FO
  36   36 2275  533 FO
  36   36 2406  598 FO
gr

c10
0 273 707 1736 2 MP stroke
34 0 690 1736 2 MP stroke
34 0 690 2009 2 MP stroke
837 1777 PD
34 0 820 1777 2 MP stroke
0 181 968 1400 2 MP stroke
34 0 951 1400 2 MP stroke
34 0 951 1581 2 MP stroke
0 126 1099 1220 2 MP stroke
34 0 1082 1220 2 MP stroke
34 0 1082 1346 2 MP stroke
0 110 1230 1113 2 MP stroke
34 0 1213 1113 2 MP stroke
34 0 1213 1223 2 MP stroke
0 90 1360 981 2 MP stroke
34 0 1343 981 2 MP stroke
34 0 1343 1071 2 MP stroke
0 87 1491 893 2 MP stroke
34 0 1474 893 2 MP stroke
34 0 1474 980 2 MP stroke
0 100 1622 875 2 MP stroke
34 0 1605 875 2 MP stroke
34 0 1605 975 2 MP stroke
0 88 1752 716 2 MP stroke
34 0 1735 716 2 MP stroke
34 0 1735 804 2 MP stroke
0 120 1883 708 2 MP stroke
34 0 1866 708 2 MP stroke
34 0 1866 828 2 MP stroke
0 147 2014 662 2 MP stroke
34 0 1997 662 2 MP stroke
34 0 1997 809 2 MP stroke
0 186 2145 620 2 MP stroke
34 0 2128 620 2 MP stroke
34 0 2128 806 2 MP stroke
0 248 2275 444 2 MP stroke
34 0 2258 444 2 MP stroke
34 0 2258 692 2 MP stroke
2406 419 PD
34 0 2389 419 2 MP stroke
gs 634 460 1846 1533 rc
  36   36  707 1830 FO
  36   36  837 1919 FO
  36   36  968 1471 FO
  36   36 1099 1274 FO
  36   36 1230 1161 FO
  36   36 1360 1021 FO
  36   36 1491  932 FO
  36   36 1622  919 FO
  36   36 1752  756 FO
  36   36 1883  759 FO
  36   36 2014  722 FO
  36   36 2145  693 FO
  36   36 2275  533 FO
  36   36 2406  598 FO
gr

19 2 19 1 19 0 19 0 20 -1 19 0 19 -2 19 -2 
19 -2 19 -3 19 -3 20 -3 19 -4 19 -4 19 -5 19 -4 
19 -6 20 -5 19 -6 19 -7 19 -6 19 -7 19 -7 19 -8 
20 -8 19 -8 19 -9 19 -8 19 -10 19 -9 19 -10 20 -10 
19 -10 19 -11 19 -11 19 -11 19 -12 19 -11 20 -12 19 -13 
19 -12 19 -13 19 -14 19 -13 20 -14 19 -14 19 -14 19 -15 
19 -15 19 -15 19 -15 20 -16 19 -16 19 -16 19 -17 19 -17 
19 -17 19 -17 20 -18 19 -17 19 -19 19 -18 19 -19 19 -18 
19 -20 20 -19 19 -20 19 -20 19 -20 19 -20 19 -21 20 -21 
19 -21 19 -22 19 -21 19 -22 19 -23 19 -22 20 -23 19 -23 
19 -23 19 -24 19 -24 19 -24 19 -24 20 -25 19 -24 19 -25 
19 -26 19 -25 19 -26 19 -26 20 -26 19 -27 19 -27 19 -27 
19 -27 19 -28 19 -28 511 2058 100 MP stroke
gs 957 662 2338 1209 rc
  36   36 1030 1797 FO
  36   36 1145 1610 FO
  36   36 1260 1491 FO
  36   36 1376 1379 FO
  36   36 1491 1233 FO
  36   36 1606 1222 FO
  36   36 1722 1155 FO
  36   36 1837 1144 FO
  36   36 1952 1055 FO
  36   36 2068  949 FO
  36   36 2183 1008 FO
  36   36 2298  950 FO
  36   36 2414  862 FO
  36   36 2529  928 FO
  36   36 2645  812 FO
  36   36 2760  750 FO
  36   36 2875  735 FO
  36   36 2991  810 FO
  36   36 3106  843 FO
  36   36 3221  824 FO
gr

0 364 1030 1687 2 MP stroke
44 0 1008 1687 2 MP stroke
44 0 1008 2051 2 MP stroke
0 228 1145 1526 2 MP stroke
44 0 1123 1526 2 MP stroke
44 0 1123 1754 2 MP stroke
0 179 1260 1421 2 MP stroke
44 0 1238 1421 2 MP stroke
44 0 1238 1600 2 MP stroke
0 144 1376 1319 2 MP stroke
44 0 1354 1319 2 MP stroke
44 0 1354 1463 2 MP stroke
0 108 1491 1186 2 MP stroke
44 0 1469 1186 2 MP stroke
44 0 1469 1294 2 MP stroke
0 112 1606 1173 2 MP stroke
44 0 1584 1173 2 MP stroke
44 0 1584 1285 2 MP stroke
0 102 1722 1110 2 MP stroke
44 0 1700 1110 2 MP stroke
44 0 1700 1212 2 MP stroke
0 105 1837 1098 2 MP stroke
44 0 1815 1098 2 MP stroke
44 0 1815 1203 2 MP stroke
0 92 1952 1014 2 MP stroke
44 0 1930 1014 2 MP stroke
44 0 1930 1106 2 MP stroke
0 79 2068 914 2 MP stroke
44 0 2046 914 2 MP stroke
44 0 2046 993 2 MP stroke
0 97 2183 965 2 MP stroke
44 0 2161 965 2 MP stroke
44 0 2161 1062 2 MP stroke
0 94 2298 908 2 MP stroke
43 0 2277 908 2 MP stroke
43 0 2277 1002 2 MP stroke
0 87 2414 823 2 MP stroke
44 0 2392 823 2 MP stroke
44 0 2392 910 2 MP stroke
0 110 2529 880 2 MP stroke
44 0 2507 880 2 MP stroke
44 0 2507 990 2 MP stroke
0 97 2645 769 2 MP stroke
43 0 2623 769 2 MP stroke
43 0 2623 866 2 MP stroke
0 108 2760 703 2 MP stroke
44 0 2738 703 2 MP stroke
44 0 2738 811 2 MP stroke
0 130 2875 680 2 MP stroke
44 0 2853 680 2 MP stroke
44 0 2853 810 2 MP stroke
0 187 2991 737 2 MP stroke
44 0 2969 737 2 MP stroke
44 0 2969 924 2 MP stroke
0 224 3106 760 2 MP stroke
44 0 3084 760 2 MP stroke
44 0 3084 984 2 MP stroke
0 259 3221 733 2 MP stroke
44 0 3199 733 2 MP stroke
44 0 3199 992 2 MP stroke
gs 957 662 2338 1209 rc
  36   36 1030 1797 FO
  36   36 1145 1610 FO
  36   36 1260 1491 FO
  36   36 1376 1379 FO
  36   36 1491 1233 FO
  36   36 1606 1222 FO
  36   36 1722 1155 FO
  36   36 1837 1144 FO
  36   36 1952 1055 FO
  36   36 2068  949 FO
  36   36 2183 1008 FO
  36   36 2298  950 FO
  36   36 2414  862 FO
  36   36 2529  928 FO
  36   36 2645  812 FO
  36   36 2760  750 FO
  36   36 2875  735 FO
  36   36 2991  810 FO
  36   36 3106  843 FO
  36   36 3221  824 FO
gr

27 9 27 8 28 7 27 6 28 5 27 5 27 3 28 3 
27 3 28 1 27 1 27 0 28 0 27 -1 27 -1 28 -2 
27 -2 28 -3 27 -3 27 -4 28 -4 27 -5 27 -5 28 -5 
27 -6 28 -6 27 -7 27 -7 28 -8 27 -7 28 -9 27 -8 
27 -9 28 -10 27 -10 27 -10 28 -10 27 -11 28 -11 27 -12 
27 -12 28 -12 27 -13 28 -13 27 -13 27 -14 28 -14 27 -14 
27 -15 28 -15 27 -15 28 -16 27 -16 27 -16 28 -16 27 -17 
27 -18 28 -17 27 -18 28 -18 27 -19 27 -19 28 -19 27 -20 
28 -19 27 -21 27 -20 28 -21 27 -21 27 -21 28 -22 27 -22 
28 -22 27 -23 27 -23 28 -23 27 -24 27 -24 28 -24 27 -24 
28 -25 27 -25 27 -26 28 -25 27 -26 28 -27 27 -26 27 -27 
28 -27 27 -28 27 -28 28 -28 27 -28 28 -29 27 -29 27 -29 
28 -30 27 -30 27 -30 511 2225 100 MP stroke
gr

c10
1 sg
0 882 1593 0 0 -882 1723 2457 4 MP
PP
-1593 0 0 882 1593 0 0 -882 1723 2457 5 MP stroke
4 w
DO
SO
6 w
0 sg
1723 1575 mt 3316 1575 L
1723 2457 mt 3316 2457 L
3316 2457 mt 3316 1575 L
1723 2457 mt 1723 1575 L
1723 2457 mt 3316 2457 L
1723 2457 mt 1723 1575 L
1723 1575 mt 3316 1575 L
1723 2457 mt 3316 2457 L
3316 2457 mt 3316 1575 L
1723 2457 mt 1723 1575 L
2191 1722 mt 
(SAwt) s
gs 1723 1575 1594 883 rc
gr

c8
  36   36 1975 1680 FO
gs 1723 1575 1594 883 rc
gr

0 sg
2191 1890 mt 
(SA W120K) s
gs 1723 1575 1594 883 rc
gr

c9
  36   36 1975 1848 FO
gs 1723 1575 1594 883 rc
gr

0 sg
2191 2059 mt 
(SA monomer) s
gs 1723 1575 1594 883 rc
gr

c10
  36   36 1975 2016 FO
gs 1723 1575 1594 883 rc
gr

0 sg
2191 2227 mt 
(SA tetramer + Biotin) s
gs 1723 1575 1594 883 rc
gr

/c11 { 0.200000 0.200000 1.000000 sr} bdef
c11
  36   36 1975 2184 FO
gs 1723 1575 1594 883 rc
gr

0 sg
2191 2395 mt 
(Fit to model) s
gs 1723 1575 1594 883 rc
360 0 1795 2352 2 MP stroke
gr


end %%Color Dict

eplot
%%EndObject

epage
end

showpage

%%Trailer
%%EOF
