%!PS-Adobe-3.0 EPSF-3.0
%%Creator: MATLAB, The Mathworks, Inc. Version 7.10.0.499 (R2010a). Operating System: Microsoft Windows 7.
%%Title: C:\Users\Zack\Dropbox\Manuscripts\ProteinS\Figures\ContourLength.eps
%%CreationDate: 10/30/2014  13:31:20
%%DocumentNeededFonts: Helvetica
%%DocumentProcessColors: Cyan Magenta Yellow Black
%%LanguageLevel: 2
%%Pages: 1
%%BoundingBox:   228   322   381   469
%%EndComments

%%BeginProlog
% MathWorks dictionary
/MathWorks 160 dict begin
% definition operators
/bdef {bind def} bind def
/ldef {load def} bind def
/xdef {exch def} bdef
/xstore {exch store} bdef
% operator abbreviations
/c  /clip ldef
/cc /concat ldef
/cp /closepath ldef
/gr /grestore ldef
/gs /gsave ldef
/mt /moveto ldef
/np /newpath ldef
/cm /currentmatrix ldef
/sm /setmatrix ldef
/rm /rmoveto ldef
/rl /rlineto ldef
/s {show newpath} bdef
/sc {setcmykcolor} bdef
/sr /setrgbcolor ldef
/sg /setgray ldef
/w /setlinewidth ldef
/j /setlinejoin ldef
/cap /setlinecap ldef
/rc {rectclip} bdef
/rf {rectfill} bdef
% page state control
/pgsv () def
/bpage {/pgsv save def} bdef
/epage {pgsv restore} bdef
/bplot /gsave ldef
/eplot {stroke grestore} bdef
% orientation switch
/portraitMode 0 def /landscapeMode 1 def /rotateMode 2 def
% coordinate system mappings
/dpi2point 0 def
% font control
/FontSize 0 def
/FMS {/FontSize xstore findfont [FontSize 0 0 FontSize neg 0 0]
  makefont setfont} bdef
/ISOLatin1Encoding where {pop /WindowsLatin1Encoding 256 array bdef
ISOLatin1Encoding WindowsLatin1Encoding copy pop
/.notdef/.notdef/quotesinglbase/florin/quotedblbase/ellipsis/dagger
/daggerdbl/circumflex/perthousand/Scaron/guilsinglleft/OE/.notdef/.notdef
/.notdef/.notdef/quoteleft/quoteright/quotedblleft/quotedblright/bullet
/endash/emdash/tilde/trademark/scaron/guilsinglright/oe/.notdef/.notdef
/Ydieresis WindowsLatin1Encoding 128 32 getinterval astore pop}
{/WindowsLatin1Encoding StandardEncoding bdef} ifelse
/reencode {exch dup where {pop load} {pop StandardEncoding} ifelse
  exch dup 3 1 roll findfont dup length dict begin
  { 1 index /FID ne {def}{pop pop} ifelse } forall
  /Encoding exch def currentdict end definefont pop} bdef
/isroman {findfont /CharStrings get /Agrave known} bdef
/FMSR {3 1 roll 1 index dup isroman {reencode} {pop pop} ifelse
  exch FMS} bdef
/csm {1 dpi2point div -1 dpi2point div scale neg translate
 dup landscapeMode eq {pop -90 rotate}
  {rotateMode eq {90 rotate} if} ifelse} bdef
% line types: solid, dotted, dashed, dotdash
/SO { [] 0 setdash } bdef
/DO { [.5 dpi2point mul 4 dpi2point mul] 0 setdash } bdef
/DA { [6 dpi2point mul] 0 setdash } bdef
/DD { [.5 dpi2point mul 4 dpi2point mul 6 dpi2point mul 4
  dpi2point mul] 0 setdash } bdef
% macros for lines and objects
/L {lineto stroke} bdef
/MP {3 1 roll moveto 1 sub {rlineto} repeat} bdef
/AP {{rlineto} repeat} bdef
/PDlw -1 def
/W {/PDlw currentlinewidth def setlinewidth} def
/PP {closepath eofill} bdef
/DP {closepath stroke} bdef
/MR {4 -2 roll moveto dup  0 exch rlineto exch 0 rlineto
  neg 0 exch rlineto closepath} bdef
/FR {MR stroke} bdef
/PR {MR fill} bdef
/L1i {{currentfile picstr readhexstring pop} image} bdef
/tMatrix matrix def
/MakeOval {newpath tMatrix currentmatrix pop translate scale
0 0 1 0 360 arc tMatrix setmatrix} bdef
/FO {MakeOval stroke} bdef
/PO {MakeOval fill} bdef
/PD {currentlinewidth 2 div 0 360 arc fill
   PDlw -1 eq not {PDlw w /PDlw -1 def} if} def
/FA {newpath tMatrix currentmatrix pop translate scale
  0 0 1 5 -2 roll arc tMatrix setmatrix stroke} bdef
/PA {newpath tMatrix currentmatrix pop	translate 0 0 moveto scale
  0 0 1 5 -2 roll arc closepath tMatrix setmatrix fill} bdef
/FAn {newpath tMatrix currentmatrix pop translate scale
  0 0 1 5 -2 roll arcn tMatrix setmatrix stroke} bdef
/PAn {newpath tMatrix currentmatrix pop translate 0 0 moveto scale
  0 0 1 5 -2 roll arcn closepath tMatrix setmatrix fill} bdef
/vradius 0 def /hradius 0 def /lry 0 def
/lrx 0 def /uly 0 def /ulx 0 def /rad 0 def
/MRR {/vradius xdef /hradius xdef /lry xdef /lrx xdef /uly xdef
  /ulx xdef newpath tMatrix currentmatrix pop ulx hradius add uly
  vradius add translate hradius vradius scale 0 0 1 180 270 arc 
  tMatrix setmatrix lrx hradius sub uly vradius add translate
  hradius vradius scale 0 0 1 270 360 arc tMatrix setmatrix
  lrx hradius sub lry vradius sub translate hradius vradius scale
  0 0 1 0 90 arc tMatrix setmatrix ulx hradius add lry vradius sub
  translate hradius vradius scale 0 0 1 90 180 arc tMatrix setmatrix
  closepath} bdef
/FRR {MRR stroke } bdef
/PRR {MRR fill } bdef
/MlrRR {/lry xdef /lrx xdef /uly xdef /ulx xdef /rad lry uly sub 2 div def
  newpath tMatrix currentmatrix pop ulx rad add uly rad add translate
  rad rad scale 0 0 1 90 270 arc tMatrix setmatrix lrx rad sub lry rad
  sub translate rad rad scale 0 0 1 270 90 arc tMatrix setmatrix
  closepath} bdef
/FlrRR {MlrRR stroke } bdef
/PlrRR {MlrRR fill } bdef
/MtbRR {/lry xdef /lrx xdef /uly xdef /ulx xdef /rad lrx ulx sub 2 div def
  newpath tMatrix currentmatrix pop ulx rad add uly rad add translate
  rad rad scale 0 0 1 180 360 arc tMatrix setmatrix lrx rad sub lry rad
  sub translate rad rad scale 0 0 1 0 180 arc tMatrix setmatrix
  closepath} bdef
/FtbRR {MtbRR stroke } bdef
/PtbRR {MtbRR fill } bdef
/stri 6 array def /dtri 6 array def
/smat 6 array def /dmat 6 array def
/tmat1 6 array def /tmat2 6 array def /dif 3 array def
/asub {/ind2 exch def /ind1 exch def dup dup
  ind1 get exch ind2 get sub exch } bdef
/tri_to_matrix {
  2 0 asub 3 1 asub 4 0 asub 5 1 asub
  dup 0 get exch 1 get 7 -1 roll astore } bdef
/compute_transform {
  dmat dtri tri_to_matrix tmat1 invertmatrix 
  smat stri tri_to_matrix tmat2 concatmatrix } bdef
/ds {stri astore pop} bdef
/dt {dtri astore pop} bdef
/db {2 copy /cols xdef /rows xdef mul dup 3 mul string
  currentfile 
  3 index 0 eq {/ASCIIHexDecode filter}
  {/ASCII85Decode filter 3 index 2 eq {/RunLengthDecode filter} if }
  ifelse exch readstring pop
  dup 0 3 index getinterval /rbmap xdef
  dup 2 index dup getinterval /gbmap xdef
  1 index dup 2 mul exch getinterval /bbmap xdef pop pop}bdef
/it {gs np dtri aload pop moveto lineto lineto cp c
  cols rows 8 compute_transform 
  rbmap gbmap bbmap true 3 colorimage gr}bdef
/il {newpath moveto lineto stroke}bdef
currentdict end def
%%EndProlog

%%BeginSetup
MathWorks begin

0 cap

end
%%EndSetup

%%Page: 1 1
%%BeginPageSetup
%%PageBoundingBox:   228   322   381   469
MathWorks begin
bpage
%%EndPageSetup

%%BeginObject: obj1
bplot

/dpi2point 12 def
portraitMode 2736 5628 csm

    0     0  1845  1764 rc
85 dict begin %Colortable dictionary
/c0 { 0.000000 0.000000 0.000000 sr} bdef
/c1 { 1.000000 1.000000 1.000000 sr} bdef
/c2 { 0.900000 0.000000 0.000000 sr} bdef
/c3 { 0.000000 0.820000 0.000000 sr} bdef
/c4 { 0.000000 0.000000 0.800000 sr} bdef
/c5 { 0.910000 0.820000 0.320000 sr} bdef
/c6 { 1.000000 0.260000 0.820000 sr} bdef
/c7 { 0.000000 0.820000 0.820000 sr} bdef
c0
1 j
1 sg
   0    0 1846 1765 rf
6 w
0 1316 1239 0 0 -1316 431 1447 4 MP
PP
-1239 0 0 1316 1239 0 0 -1316 431 1447 5 MP stroke
gs 431 132 1240 1316 rc
/c8 { 0.000000 0.000000 0.562500 sr} bdef
c8
 658  497 mt  662  485 L
 662  485 mt  670  458 L
 670  458 mt  676  434 L
 676  434 mt  678  430 L
 678  430 mt  691  403 L
 691  403 mt  694  396 L
 694  396 mt  707  376 L
 707  376 mt  712  366 L
 712  366 mt  718  348 L
 718  348 mt  730  325 L
 730  325 mt  733  321 L
 733  321 mt  748  307 L
 748  307 mt  766  301 L
 766  301 mt  784  295 L
 784  295 mt  794  294 L
 794  294 mt  802  292 L
 802  292 mt  803  294 L
 803  294 mt  820  312 L
 820  312 mt  825  321 L
 825  321 mt  838  337 L
 838  337 mt  848  348 L
 848  348 mt  855  354 L
 855  354 mt  873  375 L
 873  375 mt  874  376 L
 874  376 mt  889  403 L
 889  403 mt  891  410 L
 891  410 mt  898  430 L
 898  430 mt  902  458 L
 902  458 mt  905  485 L
 905  485 mt  907  512 L
 907  512 mt  908  539 L
 908  539 mt  908  567 L
 908  567 mt  906  594 L
 906  594 mt  902  621 L
 902  621 mt  897  649 L
 897  649 mt  891  675 L
 891  675 mt  891  676 L
 891  676 mt  883  703 L
 883  703 mt  873  726 L
 873  726 mt  869  731 L
 869  731 mt  855  746 L
 855  746 mt  844  758 L
 844  758 mt  838  766 L
 838  766 mt  829  785 L
 829  785 mt  821  813 L
 821  813 mt  820  818 L
 820  818 mt  813  840 L
 813  840 mt  802  859 L
 802  859 mt  784  860 L
 784  860 mt  766  856 L
 766  856 mt  748  853 L
 748  853 mt  730  842 L
 730  842 mt  728  840 L
 728  840 mt  712  822 L
 712  822 mt  706  813 L
 706  813 mt  695  785 L
 695  785 mt  694  783 L
 694  783 mt  686  758 L
 686  758 mt  678  731 L
 678  731 mt  676  724 L
 676  724 mt  670  703 L
 670  703 mt  664  676 L
 664  676 mt  659  649 L
 659  649 mt  658  647 L
 658  647 mt  653  621 L
 653  621 mt  649  594 L
 649  594 mt  647  567 L
 647  567 mt  649  539 L
 649  539 mt  654  512 L
 654  512 mt  658  497 L
 694  513 mt  694  512 L
 694  512 mt  709  485 L
 709  485 mt  712  479 L
 712  479 mt  723  458 L
 723  458 mt  730  444 L
 730  444 mt  735  430 L
 735  430 mt  744  403 L
 744  403 mt  748  390 L
 748  390 mt  755  376 L
 755  376 mt  766  361 L
 766  361 mt  784  358 L
 784  358 mt  802  374 L
 802  374 mt  803  376 L
 803  376 mt  820  402 L
 820  402 mt  821  403 L
 821  403 mt  838  416 L
 838  416 mt  855  428 L
 855  428 mt  857  430 L
 857  430 mt  866  458 L
 866  458 mt  873  485 L
 873  485 mt  873  485 L
 873  485 mt  877  512 L
 877  512 mt  880  539 L
 880  539 mt  881  567 L
 881  567 mt  879  594 L
 879  594 mt  874  621 L
 874  621 mt  873  624 L
 873  624 mt  864  649 L
 864  649 mt  855  668 L
 855  668 mt  852  676 L
 852  676 mt  838  700 L
 838  700 mt  836  703 L
 836  703 mt  820  730 L
 820  730 mt  819  731 L
 819  731 mt  804  758 L
 804  758 mt  802  762 L
 802  762 mt  784  784 L
 784  784 mt  780  785 L
 780  785 mt  766  791 L
 766  791 mt  748  792 L
 748  792 mt  736  785 L
 736  785 mt  730  782 L
 730  782 mt  715  758 L
 715  758 mt  712  753 L
 712  753 mt  703  731 L
 703  731 mt  694  704 L
 694  704 mt  694  703 L
 694  703 mt  687  676 L
 687  676 mt  682  649 L
 682  649 mt  680  621 L
 680  621 mt  678  594 L
 678  594 mt  679  567 L
 679  567 mt  684  539 L
 684  539 mt  694  513 L
 712  538 mt  724  512 L
 724  512 mt  730  501 L
 730  501 mt  740  485 L
 740  485 mt  748  468 L
 748  468 mt  754  458 L
 754  458 mt  765  430 L
 765  430 mt  766  428 L
 766  428 mt  784  423 L
 784  423 mt  787  430 L
 787  430 mt  794  458 L
 794  458 mt  796  485 L
 796  485 mt  799  512 L
 799  512 mt  802  521 L
 802  521 mt  809  539 L
 809  539 mt  820  561 L
 820  561 mt  825  567 L
 825  567 mt  836  594 L
 836  594 mt  836  621 L
 836  621 mt  832  649 L
 832  649 mt  823  676 L
 823  676 mt  820  683 L
 820  683 mt  809  703 L
 809  703 mt  802  716 L
 802  716 mt  790  731 L
 790  731 mt  784  739 L
 784  739 mt  766  747 L
 766  747 mt  748  744 L
 748  744 mt  731  731 L
 731  731 mt  730  730 L
 730  730 mt  714  703 L
 714  703 mt  712  700 L
 712  700 mt  704  676 L
 704  676 mt  699  649 L
 699  649 mt  698  621 L
 698  621 mt  699  594 L
 699  594 mt  703  567 L
 703  567 mt  711  539 L
 711  539 mt  712  538 L
 730  552 mt  740  539 L
 740  539 mt  748  530 L
 748  530 mt  766  533 L
 766  533 mt  769  539 L
 769  539 mt  784  561 L
 784  561 mt  787  567 L
 787  567 mt  802  594 L
 802  594 mt  802  595 L
 802  595 mt  808  621 L
 808  621 mt  807  649 L
 807  649 mt  802  667 L
 802  667 mt  798  676 L
 798  676 mt  784  698 L
 784  698 mt  773  703 L
 773  703 mt  766  707 L
 766  707 mt  757  703 L
 757  703 mt  748  699 L
 748  699 mt  730  684 L
 730  684 mt  725  676 L
 725  676 mt  716  649 L
 716  649 mt  713  621 L
 713  621 mt  716  594 L
 716  594 mt  724  567 L
 724  567 mt  730  552 L
/c9 { 0.500000 0.000000 0.000000 sr} bdef
c9
1278  784 mt 1278  797 L
1278  797 mt 1278  811 L
1278  811 mt 1282  824 L
1282  824 mt 1285  835 L
1285  835 mt 1287  838 L
1287  838 mt 1300  851 L
1300  851 mt 1307  855 L
1307  855 mt 1326  865 L
1326  865 mt 1329  866 L
1329  866 mt 1351  873 L
1351  873 mt 1368  879 L
1368  879 mt 1372  880 L
1372  880 mt 1394  883 L
1394  883 mt 1416  886 L
1416  886 mt 1438  887 L
1438  887 mt 1460  887 L
1460  887 mt 1482  887 L
c8
1175 1163 mt 1184 1176 L
1184 1176 mt 1183 1189 L
1183 1189 mt 1175 1198 L
1175 1198 mt 1172 1203 L
1172 1203 mt 1154 1216 L
1154 1216 mt 1154 1217 L
1154 1217 mt 1142 1230 L
1142 1230 mt 1132 1239 L
1132 1239 mt 1128 1243 L
1128 1243 mt 1115 1257 L
1115 1257 mt 1110 1261 L
1110 1261 mt 1099 1270 L
1099 1270 mt 1088 1278 L
1088 1278 mt 1076 1284 L
1076 1284 mt 1066 1289 L
1066 1289 mt 1046 1297 L
1046 1297 mt 1044 1298 L
1044 1298 mt 1022 1305 L
1022 1305 mt 1000 1308 L
1000 1308 mt  978 1307 L
 978 1307 mt  957 1300 L
 957 1300 mt  951 1297 L
 951 1297 mt  935 1289 L
 935 1289 mt  928 1284 L
 928 1284 mt  913 1273 L
 913 1273 mt  910 1270 L
 910 1270 mt  894 1257 L
 894 1257 mt  891 1254 L
 891 1254 mt  876 1243 L
 876 1243 mt  869 1237 L
 869 1237 mt  856 1230 L
 856 1230 mt  847 1224 L
 847 1224 mt  829 1216 L
 829 1216 mt  825 1214 L
 825 1214 mt  803 1204 L
 803 1204 mt  801 1203 L
 801 1203 mt  784 1189 L
 784 1189 mt  781 1186 L
 781 1186 mt  775 1176 L
 775 1176 mt  769 1162 L
 769 1162 mt  766 1149 L
 766 1149 mt  765 1135 L
 765 1135 mt  764 1122 L
 764 1122 mt  765 1108 L
 765 1108 mt  766 1095 L
 766 1095 mt  769 1081 L
 769 1081 mt  772 1068 L
 772 1068 mt  776 1054 L
 776 1054 mt  781 1041 L
 781 1041 mt  781 1038 L
 781 1038 mt  784 1027 L
 784 1027 mt  789 1014 L
 789 1014 mt  794 1000 L
 794 1000 mt  801  987 L
 801  987 mt  803  982 L
 803  982 mt  808  973 L
 808  973 mt  818  960 L
 818  960 mt  825  954 L
 825  954 mt  847  948 L
 847  948 mt  869  948 L
 869  948 mt  883  946 L
 883  946 mt  891  945 L
 891  945 mt  913  942 L
 913  942 mt  935  946 L
 935  946 mt  935  946 L
 935  946 mt  951  960 L
 951  960 mt  957  964 L
 957  964 mt  965  973 L
 965  973 mt  978  983 L
 978  983 mt  983  987 L
 983  987 mt 1000  996 L
1000  996 mt 1007 1000 L
1007 1000 mt 1022 1010 L
1022 1010 mt 1027 1014 L
1027 1014 mt 1041 1027 L
1041 1027 mt 1044 1033 L
1044 1033 mt 1049 1041 L
1049 1041 mt 1054 1054 L
1054 1054 mt 1059 1068 L
1059 1068 mt 1065 1081 L
1065 1081 mt 1066 1083 L
1066 1083 mt 1079 1095 L
1079 1095 mt 1088 1101 L
1088 1101 mt 1103 1108 L
1103 1108 mt 1110 1112 L
1110 1112 mt 1126 1122 L
1126 1122 mt 1132 1126 L
1132 1126 mt 1144 1135 L
1144 1135 mt 1154 1144 L
1154 1144 mt 1159 1149 L
1159 1149 mt 1175 1162 L
1175 1162 mt 1175 1163 L
1110 1175 mt 1110 1176 L
1110 1176 mt 1114 1189 L
1114 1189 mt 1114 1203 L
1114 1203 mt 1110 1215 L
1110 1215 mt 1109 1216 L
1109 1216 mt 1102 1230 L
1102 1230 mt 1091 1243 L
1091 1243 mt 1088 1247 L
1088 1247 mt 1075 1257 L
1075 1257 mt 1066 1263 L
1066 1263 mt 1050 1270 L
1050 1270 mt 1044 1273 L
1044 1273 mt 1022 1280 L
1022 1280 mt 1000 1283 L
1000 1283 mt  978 1281 L
 978 1281 mt  957 1274 L
 957 1274 mt  951 1270 L
 951 1270 mt  935 1261 L
 935 1261 mt  930 1257 L
 930 1257 mt  914 1243 L
 914 1243 mt  913 1242 L
 913 1242 mt  900 1230 L
 900 1230 mt  891 1220 L
 891 1220 mt  887 1216 L
 887 1216 mt  874 1203 L
 874 1203 mt  869 1198 L
 869 1198 mt  858 1189 L
 858 1189 mt  847 1179 L
 847 1179 mt  842 1176 L
 842 1176 mt  828 1162 L
 828 1162 mt  825 1159 L
 825 1159 mt  818 1149 L
 818 1149 mt  811 1135 L
 811 1135 mt  807 1122 L
 807 1122 mt  806 1108 L
 806 1108 mt  807 1095 L
 807 1095 mt  811 1081 L
 811 1081 mt  817 1068 L
 817 1068 mt  825 1055 L
 825 1055 mt  826 1054 L
 826 1054 mt  839 1041 L
 839 1041 mt  847 1035 L
 847 1035 mt  865 1027 L
 865 1027 mt  869 1026 L
 869 1026 mt  891 1020 L
 891 1020 mt  913 1015 L
 913 1015 mt  928 1014 L
 928 1014 mt  935 1013 L
 935 1013 mt  940 1014 L
 940 1014 mt  957 1015 L
 957 1015 mt  978 1023 L
 978 1023 mt  985 1027 L
 985 1027 mt 1000 1040 L
1000 1040 mt 1001 1041 L
1001 1041 mt 1011 1054 L
1011 1054 mt 1016 1068 L
1016 1068 mt 1019 1081 L
1019 1081 mt 1022 1092 L
1022 1092 mt 1023 1095 L
1023 1095 mt 1030 1108 L
1030 1108 mt 1042 1122 L
1042 1122 mt 1044 1123 L
1044 1123 mt 1064 1135 L
1064 1135 mt 1066 1136 L
1066 1136 mt 1086 1149 L
1086 1149 mt 1088 1150 L
1088 1150 mt 1102 1162 L
1102 1162 mt 1110 1175 L
1066 1167 mt 1076 1176 L
1076 1176 mt 1085 1189 L
1085 1189 mt 1087 1203 L
1087 1203 mt 1083 1216 L
1083 1216 mt 1075 1230 L
1075 1230 mt 1066 1239 L
1066 1239 mt 1060 1243 L
1060 1243 mt 1044 1252 L
1044 1252 mt 1031 1257 L
1031 1257 mt 1022 1260 L
1022 1260 mt 1000 1263 L
1000 1263 mt  978 1261 L
 978 1261 mt  968 1257 L
 968 1257 mt  957 1252 L
 957 1252 mt  943 1243 L
 943 1243 mt  935 1237 L
 935 1237 mt  927 1230 L
 927 1230 mt  915 1216 L
 915 1216 mt  913 1213 L
 913 1213 mt  904 1203 L
 904 1203 mt  894 1189 L
 894 1189 mt  891 1185 L
 891 1185 mt  883 1176 L
 883 1176 mt  871 1162 L
 871 1162 mt  869 1159 L
 869 1159 mt  859 1149 L
 859 1149 mt  850 1135 L
 850 1135 mt  847 1129 L
 847 1129 mt  844 1122 L
 844 1122 mt  842 1108 L
 842 1108 mt  844 1095 L
 844 1095 mt  847 1089 L
 847 1089 mt  852 1081 L
 852 1081 mt  866 1068 L
 866 1068 mt  869 1065 L
 869 1065 mt  889 1054 L
 889 1054 mt  891 1053 L
 891 1053 mt  913 1044 L
 913 1044 mt  931 1041 L
 931 1041 mt  935 1040 L
 935 1040 mt  940 1041 L
 940 1041 mt  957 1043 L
 957 1043 mt  975 1054 L
 975 1054 mt  978 1057 L
 978 1057 mt  985 1068 L
 985 1068 mt  990 1081 L
 990 1081 mt  994 1095 L
 994 1095 mt  997 1108 L
 997 1108 mt 1000 1119 L
1000 1119 mt 1002 1122 L
1002 1122 mt 1012 1135 L
1012 1135 mt 1022 1143 L
1022 1143 mt 1032 1149 L
1032 1149 mt 1044 1154 L
1044 1154 mt 1059 1162 L
1059 1162 mt 1066 1167 L
1044 1182 mt 1052 1189 L
1052 1189 mt 1058 1203 L
1058 1203 mt 1055 1216 L
1055 1216 mt 1044 1229 L
1044 1229 mt 1043 1230 L
1043 1230 mt 1022 1239 L
1022 1239 mt 1000 1243 L
1000 1243 mt  978 1240 L
 978 1240 mt  957 1230 L
 957 1230 mt  956 1230 L
 956 1230 mt  942 1216 L
 942 1216 mt  935 1208 L
 935 1208 mt  931 1203 L
 931 1203 mt  923 1189 L
 923 1189 mt  915 1176 L
 915 1176 mt  913 1173 L
 913 1173 mt  906 1162 L
 906 1162 mt  896 1149 L
 896 1149 mt  891 1141 L
 891 1141 mt  887 1135 L
 887 1135 mt  883 1122 L
 883 1122 mt  883 1108 L
 883 1108 mt  890 1095 L
 890 1095 mt  891 1094 L
 891 1094 mt  904 1081 L
 904 1081 mt  913 1075 L
 913 1075 mt  935 1068 L
 935 1068 mt  957 1076 L
 957 1076 mt  960 1081 L
 960 1081 mt  966 1095 L
 966 1095 mt  969 1108 L
 969 1108 mt  971 1122 L
 971 1122 mt  976 1135 L
 976 1135 mt  978 1139 L
 978 1139 mt  985 1149 L
 985 1149 mt 1000 1160 L
1000 1160 mt 1004 1162 L
1004 1162 mt 1022 1171 L
1022 1171 mt 1033 1176 L
1033 1176 mt 1044 1182 L
c9
1239  819 mt 1239  829 L
1239  829 mt 1240  840 L
1240  840 mt 1250  847 L
1250  847 mt 1269  850 L
1269  850 mt 1285  852 L
1285  852 mt 1321  852 L
1321  852 mt 1356  852 L
1356  852 mt 1391  852 L
1391  852 mt 1427  852 L
1427  852 mt 1462  852 L
1462  852 mt 1497  852 L
1497  852 mt 1533  852 L
1533  852 mt 1568  852 L
1568  852 mt 1604  852 L
1604  852 mt 1639  852 L
1639  852 mt 1674  852 L
1674  852 mt 1710  852 L
1710  852 mt 1745  852 L
1745  852 mt 1781  852 L
1781  852 mt 1816  852 L
1816  852 mt 1851  852 L
1851  852 mt 1887  852 L
1887  852 mt 1922  852 L
1922  852 mt 1957  852 L
1957  852 mt 1993  852 L
1993  852 mt 2028  852 L
2028  852 mt 2064  852 L
2064  852 mt 2099  852 L
2099  852 mt 2134  853 L
2134  853 mt 2168  861 L
2168  861 mt 2170  861 L
2170  861 mt 2204  871 L
2204  871 mt 2205  871 L
2205  871 mt 2240  878 L
2240  878 mt 2276  880 L
2276  880 mt 2311  880 L
c8
 754 1007 mt  761  998 L
 761  998 mt  771  987 L
 771  987 mt  782  977 L
 782  977 mt  790  970 L
 790  970 mt  795  966 L
 795  966 mt  807  956 L
 807  956 mt  819  945 L
 819  945 mt  825  941 L
 825  941 mt  831  935 L
 831  935 mt  842  924 L
 842  924 mt  854  913 L
 854  913 mt  861  909 L
 861  909 mt  870  903 L
 870  903 mt  895  892 L
 895  892 mt  896  892 L
 896  892 mt  905  892 L
 905  892 mt  931  893 L
 931  893 mt  967  900 L
 967  900 mt  975  903 L
 975  903 mt  993  913 L
 993  913 mt  999  924 L
 999  924 mt 1000  935 L
1000  935 mt  999  945 L
 999  945 mt  998  956 L
 998  956 mt  998  966 L
 998  966 mt 1002  977 L
1002  977 mt 1002  977 L
1002  977 mt 1011  987 L
1011  987 mt 1020  998 L
1020  998 mt 1025 1008 L
1025 1008 mt 1029 1019 L
1029 1019 mt 1032 1029 L
1032 1029 mt 1036 1040 L
1036 1040 mt 1038 1043 L
1038 1043 mt 1044 1050 L
1044 1050 mt 1053 1061 L
1053 1061 mt 1059 1072 L
1059 1072 mt 1058 1082 L
1058 1082 mt 1047 1093 L
1047 1093 mt 1038 1097 L
1038 1097 mt 1026 1103 L
1026 1103 mt 1006 1114 L
1006 1114 mt 1002 1116 L
1002 1116 mt  995 1124 L
 995 1124 mt  982 1135 L
 982 1135 mt  967 1143 L
 967 1143 mt  956 1145 L
 956 1145 mt  931 1150 L
 931 1150 mt  896 1152 L
 896 1152 mt  872 1156 L
 872 1156 mt  861 1159 L
 861 1159 mt  850 1156 L
 850 1156 mt  825 1147 L
 825 1147 mt  822 1145 L
 822 1145 mt  810 1135 L
 810 1135 mt  801 1124 L
 801 1124 mt  793 1114 L
 793 1114 mt  790 1108 L
 790 1108 mt  786 1103 L
 786 1103 mt  776 1093 L
 776 1093 mt  764 1082 L
 764 1082 mt  754 1074 L
 754 1074 mt  749 1072 L
 749 1072 mt  733 1061 L
 733 1061 mt  728 1050 L
 728 1050 mt  730 1040 L
 730 1040 mt  736 1029 L
 736 1029 mt  744 1019 L
 744 1019 mt  754 1008 L
 754 1008 mt  754 1007 L
 790 1004 mt  798  998 L
 798  998 mt  816  987 L
 816  987 mt  825  982 L
 825  982 mt  839  977 L
 839  977 mt  853  966 L
 853  966 mt  860  956 L
 860  956 mt  861  954 L
 861  954 mt  866  945 L
 866  945 mt  874  935 L
 874  935 mt  884  924 L
 884  924 mt  896  916 L
 896  916 mt  931  917 L
 931  917 mt  944  924 L
 944  924 mt  951  935 L
 951  935 mt  953  945 L
 953  945 mt  955  956 L
 955  956 mt  959  966 L
 959  966 mt  966  977 L
 966  977 mt  967  977 L
 967  977 mt  976  987 L
 976  987 mt  984  998 L
 984  998 mt  991 1008 L
 991 1008 mt  996 1019 L
 996 1019 mt  999 1029 L
 999 1029 mt 1000 1040 L
1000 1040 mt  999 1050 L
 999 1050 mt  994 1061 L
 994 1061 mt  987 1072 L
 987 1072 mt  982 1082 L
 982 1082 mt  978 1093 L
 978 1093 mt  974 1103 L
 974 1103 mt  967 1113 L
 967 1113 mt  966 1114 L
 966 1114 mt  950 1124 L
 950 1124 mt  931 1131 L
 931 1131 mt  896 1128 L
 896 1128 mt  878 1124 L
 878 1124 mt  861 1117 L
 861 1117 mt  855 1114 L
 855 1114 mt  839 1103 L
 839 1103 mt  825 1095 L
 825 1095 mt  822 1093 L
 822 1093 mt  807 1082 L
 807 1082 mt  796 1072 L
 796 1072 mt  790 1064 L
 790 1064 mt  786 1061 L
 786 1061 mt  777 1050 L
 777 1050 mt  773 1040 L
 773 1040 mt  774 1029 L
 774 1029 mt  779 1019 L
 779 1019 mt  786 1008 L
 786 1008 mt  790 1004 L
 825 1005 mt  861  999 L
 861  999 mt  865  998 L
 865  998 mt  889  987 L
 889  987 mt  896  981 L
 896  981 mt  927  977 L
 927  977 mt  931  976 L
 931  976 mt  932  977 L
 932  977 mt  942  987 L
 942  987 mt  953  998 L
 953  998 mt  962 1008 L
 962 1008 mt  967 1018 L
 967 1018 mt  967 1019 L
 967 1019 mt  967 1022 L
 967 1022 mt  966 1029 L
 966 1029 mt  956 1040 L
 956 1040 mt  942 1050 L
 942 1050 mt  932 1061 L
 932 1061 mt  931 1072 L
 931 1072 mt  935 1082 L
 935 1082 mt  938 1093 L
 938 1093 mt  936 1103 L
 936 1103 mt  931 1108 L
 931 1108 mt  896 1104 L
 896 1104 mt  895 1103 L
 895 1103 mt  873 1093 L
 873 1093 mt  861 1090 L
 861 1090 mt  844 1082 L
 844 1082 mt  825 1074 L
 825 1074 mt  822 1072 L
 822 1072 mt  810 1061 L
 810 1061 mt  803 1050 L
 803 1050 mt  800 1040 L
 800 1040 mt  801 1029 L
 801 1029 mt  807 1019 L
 807 1019 mt  820 1008 L
 820 1008 mt  825 1005 L
 825 1029 mt  849 1019 L
 849 1019 mt  861 1016 L
 861 1016 mt  896 1017 L
 896 1017 mt  902 1019 L
 902 1019 mt  910 1029 L
 910 1029 mt  907 1040 L
 907 1040 mt  902 1050 L
 902 1050 mt  896 1058 L
 896 1058 mt  893 1061 L
 893 1061 mt  862 1072 L
 862 1072 mt  861 1072 L
 861 1072 mt  860 1072 L
 860 1072 mt  838 1061 L
 838 1061 mt  825 1052 L
 825 1052 mt  824 1050 L
 824 1050 mt  822 1040 L
 822 1040 mt  825 1029 L
 825 1029 mt  825 1029 L
gr

c8
0 sg
%%IncludeResource: font Helvetica
/Helvetica /WindowsLatin1Encoding 120 FMSR

 242 1735 mt 
(Contour length increment [nm]) s
 114 1068 mt  -90 rotate
(Force [pN]) s
90 rotate
 414 1490 mt 
( ) s
1654  174 mt 
( ) s
4 w
DO
SO
6 w
 431  131 mt 1670  131 L
 431 1447 mt 1670 1447 L
1670 1447 mt 1670  131 L
 431 1447 mt  431  131 L
 431 1447 mt 1670 1447 L
 431 1447 mt  431  131 L
 431 1447 mt  431 1433 L
 431  132 mt  431  145 L
 365 1592 mt 
(20) s
 844 1447 mt  844 1433 L
 844  132 mt  844  145 L
 778 1592 mt 
(30) s
1257 1447 mt 1257 1433 L
1257  132 mt 1257  145 L
1191 1592 mt 
(40) s
1670 1447 mt 1670 1433 L
1670  132 mt 1670  145 L
1604 1592 mt 
(50) s
 431 1447 mt  444 1447 L
1670 1447 mt 1656 1447 L
 330 1491 mt 
(0) s
 431 1008 mt  444 1008 L
1670 1008 mt 1656 1008 L
 196 1052 mt 
(100) s
 431  570 mt  444  570 L
1670  570 mt 1656  570 L
 196  614 mt 
(200) s
 431  132 mt  444  132 L
1670  132 mt 1656  132 L
 196  176 mt 
(300) s
 431  131 mt 1670  131 L
 431 1447 mt 1670 1447 L
1670 1447 mt 1670  131 L
 431 1447 mt  431  131 L
1 sg
0 882 1449 0 0 -882 214 1100 4 MP
PP
-1449 0 0 882 1449 0 0 -882 214 1100 5 MP stroke
4 w
DO
SO
6 w
0 sg
 214  218 mt 1663  218 L
 214 1100 mt 1663 1100 L
1663 1100 mt 1663  218 L
 214 1100 mt  214  218 L
 214 1100 mt 1663 1100 L
 214 1100 mt  214  218 L
 214  218 mt 1663  218 L
 214 1100 mt 1663 1100 L
1663 1100 mt 1663  218 L
 214 1100 mt  214  218 L
 682  365 mt 
(I27) s
gs 214 218 1450 883 rc
c8
 646  323 mt  639  306 L
 639  306 mt  619  290 L
 619  290 mt  588  277 L
 588  277 mt  548  268 L
 548  268 mt  502  262 L
 502  262 mt  453  261 L
 453  261 mt  405  264 L
 405  264 mt  362  272 L
 362  272 mt  326  283 L
 326  283 mt  300  298 L
 300  298 mt  287  314 L
 287  314 mt  287  331 L
 287  331 mt  300  347 L
 300  347 mt  326  362 L
 326  362 mt  362  373 L
 362  373 mt  405  381 L
 405  381 mt  453  384 L
 453  384 mt  502  383 L
 502  383 mt  548  377 L
 548  377 mt  588  368 L
 588  368 mt  619  355 L
 619  355 mt  639  339 L
 639  339 mt  646  323 L
 646  323 mt  646  323 L
 586  323 mt  581  311 L
 581  311 mt  568  301 L
 568  301 mt  547  292 L
 547  292 mt  521  286 L
 521  286 mt  490  282 L
 490  282 mt  457  281 L
 457  281 mt  425  284 L
 425  284 mt  396  289 L
 396  289 mt  372  296 L
 372  296 mt  355  306 L
 355  306 mt  347  317 L
 347  317 mt  347  328 L
 347  328 mt  355  339 L
 355  339 mt  372  349 L
 372  349 mt  396  356 L
 396  356 mt  425  361 L
 425  361 mt  457  364 L
 457  364 mt  490  363 L
 490  363 mt  521  359 L
 521  359 mt  547  353 L
 547  353 mt  568  344 L
 568  344 mt  581  334 L
 581  334 mt  586  323 L
 586  323 mt  586  323 L
 526  323 mt  523  317 L
 523  317 mt  517  312 L
 517  312 mt  506  307 L
 506  307 mt  493  304 L
 493  304 mt  478  302 L
 478  302 mt  461  302 L
 461  302 mt  445  303 L
 445  303 mt  431  306 L
 431  306 mt  419  309 L
 419  309 mt  410  314 L
 410  314 mt  406  320 L
 406  320 mt  406  325 L
 406  325 mt  410  331 L
 410  331 mt  419  336 L
 419  336 mt  431  339 L
 431  339 mt  445  342 L
 445  342 mt  461  343 L
 461  343 mt  478  343 L
 478  343 mt  493  341 L
 493  341 mt  506  338 L
 506  338 mt  517  333 L
 517  333 mt  523  328 L
 523  328 mt  526  323 L
 526  323 mt  526  323 L
gr

c8
0 sg
 682  533 mt 
(Protein S, Peak 1) s
gs 214 218 1450 883 rc
c9
 286  491 mt  646  491 L
 646  491 mt  286  491 L
gr

c9
0 sg
 682  702 mt 
(Protein S, Peak 1) s
gs 214 218 1450 883 rc
c8
 646  659 mt  639  642 L
 639  642 mt  619  626 L
 619  626 mt  588  613 L
 588  613 mt  548  604 L
 548  604 mt  502  598 L
 502  598 mt  453  597 L
 453  597 mt  405  600 L
 405  600 mt  362  608 L
 362  608 mt  326  619 L
 326  619 mt  300  634 L
 300  634 mt  287  650 L
 287  650 mt  287  667 L
 287  667 mt  300  683 L
 300  683 mt  326  698 L
 326  698 mt  362  709 L
 362  709 mt  405  717 L
 405  717 mt  453  720 L
 453  720 mt  502  719 L
 502  719 mt  548  713 L
 548  713 mt  588  704 L
 588  704 mt  619  691 L
 619  691 mt  639  675 L
 639  675 mt  646  659 L
 646  659 mt  646  659 L
 586  659 mt  581  647 L
 581  647 mt  568  637 L
 568  637 mt  547  628 L
 547  628 mt  521  622 L
 521  622 mt  490  618 L
 490  618 mt  457  617 L
 457  617 mt  425  620 L
 425  620 mt  396  625 L
 396  625 mt  372  632 L
 372  632 mt  355  642 L
 355  642 mt  347  653 L
 347  653 mt  347  664 L
 347  664 mt  355  675 L
 355  675 mt  372  685 L
 372  685 mt  396  692 L
 396  692 mt  425  697 L
 425  697 mt  457  700 L
 457  700 mt  490  699 L
 490  699 mt  521  695 L
 521  695 mt  547  689 L
 547  689 mt  568  680 L
 568  680 mt  581  670 L
 581  670 mt  586  659 L
 586  659 mt  586  659 L
 526  659 mt  523  653 L
 523  653 mt  517  648 L
 517  648 mt  506  643 L
 506  643 mt  493  640 L
 493  640 mt  478  638 L
 478  638 mt  461  638 L
 461  638 mt  445  639 L
 445  639 mt  431  642 L
 431  642 mt  419  645 L
 419  645 mt  410  650 L
 410  650 mt  406  656 L
 406  656 mt  406  661 L
 406  661 mt  410  667 L
 410  667 mt  419  672 L
 419  672 mt  431  675 L
 431  675 mt  445  678 L
 445  678 mt  461  679 L
 461  679 mt  478  679 L
 478  679 mt  493  677 L
 493  677 mt  506  674 L
 506  674 mt  517  669 L
 517  669 mt  523  664 L
 523  664 mt  526  659 L
 526  659 mt  526  659 L
gr

c8
0 sg
 682  870 mt 
(Protein S, Peak 2) s
gs 214 218 1450 883 rc
c9
 286  827 mt  646  827 L
 646  827 mt  286  827 L
gr

c9
0 sg
 682 1038 mt 
(Protein S, Peak 2) s
gs 214 218 1450 883 rc
c8
 646  995 mt  639  978 L
 639  978 mt  619  962 L
 619  962 mt  588  949 L
 588  949 mt  548  940 L
 548  940 mt  502  934 L
 502  934 mt  453  933 L
 453  933 mt  405  936 L
 405  936 mt  362  944 L
 362  944 mt  326  955 L
 326  955 mt  300  970 L
 300  970 mt  287  986 L
 287  986 mt  287 1003 L
 287 1003 mt  300 1019 L
 300 1019 mt  326 1034 L
 326 1034 mt  362 1045 L
 362 1045 mt  405 1053 L
 405 1053 mt  453 1056 L
 453 1056 mt  502 1055 L
 502 1055 mt  548 1049 L
 548 1049 mt  588 1040 L
 588 1040 mt  619 1027 L
 619 1027 mt  639 1011 L
 639 1011 mt  646  995 L
 646  995 mt  646  995 L
 586  995 mt  581  983 L
 581  983 mt  568  973 L
 568  973 mt  547  964 L
 547  964 mt  521  958 L
 521  958 mt  490  954 L
 490  954 mt  457  953 L
 457  953 mt  425  956 L
 425  956 mt  396  961 L
 396  961 mt  372  968 L
 372  968 mt  355  978 L
 355  978 mt  347  989 L
 347  989 mt  347 1000 L
 347 1000 mt  355 1011 L
 355 1011 mt  372 1021 L
 372 1021 mt  396 1028 L
 396 1028 mt  425 1033 L
 425 1033 mt  457 1036 L
 457 1036 mt  490 1035 L
 490 1035 mt  521 1031 L
 521 1031 mt  547 1025 L
 547 1025 mt  568 1016 L
 568 1016 mt  581 1006 L
 581 1006 mt  586  995 L
 586  995 mt  586  995 L
 526  995 mt  523  989 L
 523  989 mt  517  984 L
 517  984 mt  506  979 L
 506  979 mt  493  976 L
 493  976 mt  478  974 L
 478  974 mt  461  974 L
 461  974 mt  445  975 L
 445  975 mt  431  978 L
 431  978 mt  419  981 L
 419  981 mt  410  986 L
 410  986 mt  406  992 L
 406  992 mt  406  997 L
 406  997 mt  410 1003 L
 410 1003 mt  419 1008 L
 419 1008 mt  431 1011 L
 431 1011 mt  445 1014 L
 445 1014 mt  461 1015 L
 461 1015 mt  478 1015 L
 478 1015 mt  493 1013 L
 493 1013 mt  506 1010 L
 506 1010 mt  517 1005 L
 517 1005 mt  523 1000 L
 523 1000 mt  526  995 L
 526  995 mt  526  995 L
gr

c8

end %%Color Dict

eplot
%%EndObject

epage
end

showpage

%%Trailer
%%EOF
